<?xml version="1.0" encoding="utf-8"?>
<!-- Generator: Adobe Illustrator 19.0.0, SVG Export Plug-In . SVG Version: 6.00 Build 0)  -->
<svg version="1.1" id="Layer_1" xmlns="http://www.w3.org/2000/svg" xmlns:xlink="http://www.w3.org/1999/xlink" x="0px" y="0px"
	 viewBox="8 -28 42 81" style="enable-background:new 8 -28 42 81;" xml:space="preserve">
<style type="text/css">
	.st0{stroke:#000000;stroke-width:0.59;}
</style>
<path class="st0" d="M48,27.3L27.9,52L9.2,28.9c-0.4-0.4-0.3-1.1,0.2-1.4c0.4-0.4,1.1-0.3,1.5,0.2l17.1,21.1l2.8-3.4L17.5,28.9
	c-0.4-0.4-0.3-1.1,0.2-1.4c0.5-0.4,1.1-0.3,1.5,0.2l13,16l11.7-14.4H27.9c-0.6,0-1-0.5-1-1c0-0.1,0-0.2,0-0.3c0-0.1,0-0.2,0-0.3V-26
	c0-0.6,0.5-1,1-1c0.6,0,1,0.5,1,1v53.3H48z"/>
</svg>
